{
    "defaultSeverity": "error",
    "extends": ["tslint:recommended"],
    "jsRules": {},
    "rules": {
      "quotemark": [true, "single"],
      "no-console": [true, "debug", "info", "time", "timeEnd", "trace"],
      "no-inferrable-types": [true, "ignore-params"],
      "max-line-length": [true, 256],
      "ordered-imports": [
        false,
        {
          "import-sources-order": "any",
          "named-imports-order": "case-insensitive"
        }
      ],
      "member-access": true,
      "typedef": [
        true,
        "call-signature",
        "arrow-call-signature",
        "property-declaration"
      ],
      "no-unused-variable": [true, "check-parameters"],
      "no-namespace": [true, "allow-declarations"]
    },
    "rulesDirectory": []
  }
  